D:\lb1\ibank-account-api\src\main\java\com\nmk\api\account\repository\AccountRepository.java
D:\lb1\ibank-account-api\src\main\java\com\nmk\api\account\swaggerConfig.java
D:\lb1\ibank-account-api\src\main\java\com\nmk\api\account\AccountApplication.java
D:\lb1\ibank-account-api\src\main\java\com\nmk\api\account\controller\AccountController.java
D:\lb1\ibank-account-api\src\main\java\com\nmk\api\account\exception\AccountExceptionHandler.java
D:\lb1\ibank-account-api\src\main\java\com\nmk\api\account\service\AccountService.java
D:\lb1\ibank-account-api\src\main\java\com\nmk\api\account\service\AccountServiceImpl.java
